{
    "template": "addon_list_macros",
    "description": "Add Support button",
    "execution_order": 10,
    "enabled": true,
    "action": "preg_replace",
    "find": "/(fa-cog.*?button>)/s",
    "replace": "$1\n\t\t\t<xf:if is=\"$addOn.title == '[AnzahTools] Lastest Activity Widget'\">\n\t\t\t\t<xf:button class=\"button--link\"\n\t\t\t\t\thref=\"https://anzah.tools/forums/lastest-activity-widget.39\"\n\t\t\t\t\ttarget=\"_blank\"\n\t\t\t\t\trel=\"noopener noreferrer\"\n\t\t\t\t\taria-label=\"{{ phrase('new_thread') }}\">\n\t\t\t\t\t<i class=\"fa fa-envelope\" aria-hidden=\"true\"></i>\n\t\t\t\t</xf:button>\n\t\t\t</xf:if>"
}